…
# Pandas DataFrame to tibble
iris_tib <- iris_pd %>%
  as_tibble()

iris_tib
#> # A tibble: 150 x 5
#>    Sepal.Length Sepal.Width Petal.Length Petal.Width Species
#>           <dbl>       <dbl>        <dbl>       <dbl> <fct>  
#>  1         5.10        3.50         1.40       0.200 setosa 
#>  2         4.90        3.00         1.40       0.200 setosa 
#>  3         4.70        3.20         1.30       0.200 setosa 
#>  4         4.60        3.10         1.50       0.200 setosa 
#>  5         5.00        3.60         1.40       0.200 setosa 
#>  6         5.40        3.90         1.70       0.400 setosa 
#>  7         4.60        3.40         1.40       0.300 setosa 
#>  8         5.00        3.40         1.50       0.200 setosa 
#>  9         4.40        2.90         1.40       0.200 setosa 
#> 10         4.90        3.10         1.50       0.100 setosa 
#> # ... with 140 more rows
…
``` r
library(reticulate)
library(featherframe)
library(tibbletime) # just for a test data set
library(lubridate)
library(dplyr)

# Use reticulate to import pyfolio
pyfolio <- import("pyfolio")

# Get the FB stock dataset from tibbletime
data(FB)
FB
#> # A tibble: 1,008 x 8
#>    symbol date        open  high   low close    volume adjusted
#>    <chr>  <date>     <dbl> <dbl> <dbl> <dbl>     <dbl>    <dbl>
#>  1 FB     2013-01-02  27.4  28.2  27.4  28.0  69846400     28.0
#>  2 FB     2013-01-03  27.9  28.5  27.6  27.8  63140600     27.8
#>  3 FB     2013-01-04  28.0  28.9  27.8  28.8  72715400     28.8
#>  4 FB     2013-01-07  28.7  29.8  28.6  29.4  83781800     29.4
#>  5 FB     2013-01-08  29.5  29.6  28.9  29.1  45871300     29.1
#>  6 FB     2013-01-09  29.7  30.6  29.5  30.6 104787700     30.6
#>  7 FB     2013-01-10  30.6  31.5  30.3  31.3  95316400     31.3
#>  8 FB     2013-01-11  31.3  32.0  31.1  31.7  89598000     31.7
#>  9 FB     2013-01-14  32.1  32.2  30.6  31.0  98892800     31.0
#> 10 FB     2013-01-15  30.6  31.7  29.9  30.1 173242600     30.1
#> # ... with 998 more rows
…
# Go back to R now
rolling_vol_pd %>%
  as_tibble() %>%
  rename(returns_rolling_vol = returns)
#> # A tibble: 1,007 x 2
#>    date                returns_rolling_vol
#>    <dttm>                            <dbl>
#>  1 2013-01-03 00:00:00              NA    
#>  2 2013-01-04 00:00:00              NA    
#>  3 2013-01-07 00:00:00              NA    
#>  4 2013-01-08 00:00:00              NA    
#>  5 2013-01-09 00:00:00              NA    
#>  6 2013-01-10 00:00:00              NA    
#>  7 2013-01-11 00:00:00              NA    
#>  8 2013-01-14 00:00:00              NA    
#>  9 2013-01-15 00:00:00              NA    
#> 10 2013-01-16 00:00:00               0.425
#> # ... with 997 more rows
```

The idea is that we can wrap these functions up to take care of all the conversion for us. I believe this is essentially what the `keras` package does with the Python `keras` library, but in a more efficient way than using `feather`.

``` r
pyfolio_rolling_volatility <- function(x, rolling_vol_window, ...) {
  pyfolio <- import("pyfolio")
  stopifnot(is.integer(rolling_vol_window))
  
  as_pandas_Series(x, ...) %>%
    pyfolio$timeseries$rolling_volatility(rolling_vol_window) %>%
    as_tibble()
}

pyfolio_rolling_volatility(FB_returns, 10L, index = date)
#> # A tibble: 1,007 x 2
#>    date                returns
#>    <dttm>                <dbl>
#>  1 2013-01-03 00:00:00  NA    
#>  2 2013-01-04 00:00:00  NA    
#>  3 2013-01-07 00:00:00  NA    
#>  4 2013-01-08 00:00:00  NA    
#>  5 2013-01-09 00:00:00  NA    
#>  6 2013-01-10 00:00:00  NA    
#>  7 2013-01-11 00:00:00  NA    
#>  8 2013-01-14 00:00:00  NA    
#>  9 2013-01-15 00:00:00  NA    
#> 10 2013-01-16 00:00:00   0.425
#> # ... with 997 more rows
```
…
